{
  "textButtonContribute": "Partager des photos",
  "textButtonDocCli": "Voir la documentation",
  "textButtonDoc": "Retrouvez sa documentation ici",
  "textButtonDocPython": "de python (au moins la version 3.8)",
  "textButtonCli": "L'outil en ligne de commande",
  "textButtonTiles": "de tuiles vectorielles"
}
