<svg width="80" height="71" viewBox="0 0 80 71" fill="none" xmlns="http://www.w3.org/2000/svg">
<circle cx="47.5" cy="38" r="32.5" fill="#F2F5FF"/>
<path d="M51.2768 56.873H18.3615C17.7586 56.873 17.2734 56.3879 17.2734 55.7849V1.58811C17.2734 0.985114 17.7586 0.5 18.3615 0.5H51.2768C51.8798 0.5 52.3649 0.985114 52.3649 1.58811V55.7849C52.3649 56.3879 51.8752 56.873 51.2768 56.873ZM19.4497 54.6968H50.1887V2.67621H19.4497V54.6968Z" fill="#0A1F69"/>
<path d="M27.8776 12.1926H22.7273C22.1243 12.1926 21.6392 11.7075 21.6392 11.1045V5.94956C21.6392 5.34656 22.1243 4.86145 22.7273 4.86145H27.8822C28.4852 4.86145 28.9703 5.34656 28.9703 5.94956V11.0999C28.9657 11.7029 28.4806 12.1926 27.8776 12.1926ZM23.8154 10.0164H26.7941V7.0422H23.8154V10.0164Z" fill="#0A1F69"/>
<path d="M37.394 12.1926H32.2436C31.6406 12.1926 31.1555 11.7075 31.1555 11.1045V5.94956C31.1555 5.34656 31.6406 4.86145 32.2436 4.86145H37.394C37.997 4.86145 38.4821 5.34656 38.4821 5.94956V11.0999C38.4821 11.7029 37.997 12.1926 37.394 12.1926ZM33.3317 10.0164H36.3059V7.0422H33.3317V10.0164Z" fill="#0A1F69"/>
<path d="M37.394 12.1926H32.2436C31.6406 12.1926 31.1555 11.7075 31.1555 11.1045V5.94956C31.1555 5.34656 31.6406 4.86145 32.2436 4.86145H37.394C37.997 4.86145 38.4821 5.34656 38.4821 5.94956V11.0999C38.4821 11.7029 37.997 12.1926 37.394 12.1926ZM33.3317 10.0164H36.3059V7.0422H33.3317V10.0164Z" fill="#0A1F69"/>
<path d="M46.9106 12.1926H41.7602C41.1572 12.1926 40.6721 11.7075 40.6721 11.1045V5.94956C40.6721 5.34656 41.1572 4.86145 41.7602 4.86145H46.9151C47.5181 4.86145 48.0032 5.34656 48.0032 5.94956V11.0999C47.9987 11.7029 47.5136 12.1926 46.9106 12.1926ZM42.8483 10.0164H45.827V7.0422H42.8483V10.0164Z" fill="#0A1F69"/>
<path d="M27.8776 21.709H22.7273C22.1243 21.709 21.6392 21.2239 21.6392 20.6209V15.466C21.6392 14.863 22.1243 14.3779 22.7273 14.3779H27.8822C28.4852 14.3779 28.9703 14.863 28.9703 15.466V20.6209C28.9657 21.2194 28.4806 21.709 27.8776 21.709ZM23.8154 19.5328H26.7941V16.5541H23.8154V19.5328Z" fill="#0A1F69"/>
<path d="M37.394 21.709H32.2436C31.6406 21.709 31.1555 21.2239 31.1555 20.6209V15.466C31.1555 14.863 31.6406 14.3779 32.2436 14.3779H37.3985C38.0015 14.3779 38.4866 14.863 38.4866 15.466V20.6209C38.4821 21.2194 37.997 21.709 37.394 21.709ZM33.3317 19.5328H36.3104V16.5541H33.3317V19.5328Z" fill="#0A1F69"/>
<path d="M37.394 21.709H32.2436C31.6406 21.709 31.1555 21.2239 31.1555 20.6209V15.466C31.1555 14.863 31.6406 14.3779 32.2436 14.3779H37.3985C38.0015 14.3779 38.4866 14.863 38.4866 15.466V20.6209C38.4821 21.2194 37.997 21.709 37.394 21.709ZM33.3317 19.5328H36.3104V16.5541H33.3317V19.5328Z" fill="#0A1F69"/>
<path d="M46.9106 21.709H41.7602C41.1572 21.709 40.6721 21.2239 40.6721 20.6209V15.466C40.6721 14.863 41.1572 14.3779 41.7602 14.3779H46.9151C47.5181 14.3779 48.0032 14.863 48.0032 15.466V20.6209C47.9987 21.2194 47.5136 21.709 46.9106 21.709ZM42.8483 19.5328H45.827V16.5541H42.8483V19.5328Z" fill="#0A1F69"/>
<path d="M27.8776 31.2254H22.7273C22.1243 31.2254 21.6392 30.7403 21.6392 30.1373V24.9824C21.6392 24.3794 22.1243 23.8943 22.7273 23.8943H27.8822C28.4852 23.8943 28.9703 24.3794 28.9703 24.9824V30.1373C28.9657 30.7358 28.4806 31.2254 27.8776 31.2254ZM23.8154 29.0492H26.7941V26.0705H23.8154V29.0492Z" fill="#0A1F69"/>
<path d="M37.394 31.2254H32.2436C31.6406 31.2254 31.1555 30.7403 31.1555 30.1373V24.9824C31.1555 24.3794 31.6406 23.8943 32.2436 23.8943H37.3985C38.0015 23.8943 38.4866 24.3794 38.4866 24.9824V30.1373C38.4821 30.7358 37.997 31.2254 37.394 31.2254ZM33.3317 29.0492H36.3059V26.0705H33.3272L33.3317 29.0492Z" fill="#0A1F69"/>
<path d="M37.394 31.2254H32.2436C31.6406 31.2254 31.1555 30.7403 31.1555 30.1373V24.9824C31.1555 24.3794 31.6406 23.8943 32.2436 23.8943H37.3985C38.0015 23.8943 38.4866 24.3794 38.4866 24.9824V30.1373C38.4821 30.7358 37.997 31.2254 37.394 31.2254ZM33.3317 29.0492H36.3059V26.0705H33.3272L33.3317 29.0492Z" fill="#0A1F69"/>
<path d="M46.9106 31.2254H41.7602C41.1572 31.2254 40.6721 30.7403 40.6721 30.1373V24.9824C40.6721 24.3794 41.1572 23.8943 41.7602 23.8943H46.9151C47.5181 23.8943 48.0032 24.3794 48.0032 24.9824V30.1373C47.9987 30.7358 47.5136 31.2254 46.9106 31.2254ZM42.8483 29.0492H45.827V26.0705H42.8483V29.0492Z" fill="#0A1F69"/>
<path d="M65.1547 56.8729H51.2768C50.6738 56.8729 50.1887 56.3878 50.1887 55.7848V13.3578C50.1887 12.7548 50.6738 12.2697 51.2768 12.2697H65.1547C65.7577 12.2697 66.2428 12.7548 66.2428 13.3578V55.7848C66.2428 56.3878 65.7577 56.8729 65.1547 56.8729ZM52.3649 54.6967H64.0666V14.4459H52.3649V54.6967Z" fill="#0A1F69"/>
<path d="M60.7932 23.9622H55.6428C55.0398 23.9622 54.5547 23.4771 54.5547 22.8741V17.7237C54.5547 17.1207 55.0398 16.6356 55.6428 16.6356H60.7932C61.3962 16.6356 61.8813 17.1207 61.8813 17.7237V22.8786C61.8813 23.4771 61.3916 23.9622 60.7932 23.9622ZM56.7264 21.786H59.7005V18.8073H56.7264V21.786Z" fill="#0A1F69"/>
<path d="M60.7929 33.4786H55.6425C55.0396 33.4786 54.5544 32.9934 54.5544 32.3905V27.2401C54.5544 26.6371 55.0396 26.152 55.6425 26.152H60.7929C61.3959 26.152 61.881 26.6371 61.881 27.2401V32.395C61.881 32.9934 61.3914 33.4786 60.7929 33.4786ZM56.7261 31.3023H59.7003V28.3237H56.7261V31.3023Z" fill="#0A1F69"/>
<path d="M60.7929 42.9949H55.6425C55.0396 42.9949 54.5544 42.5098 54.5544 41.9068V36.7519C54.5544 36.1489 55.0396 35.6638 55.6425 35.6638H60.7929C61.3959 35.6638 61.881 36.1489 61.881 36.7519V41.9068C61.881 42.5098 61.3914 42.9949 60.7929 42.9949ZM56.7261 40.8187H59.7003V37.84H56.7261V40.8187Z" fill="#0A1F69"/>
<path d="M60.7929 52.5114H55.6425C55.0396 52.5114 54.5544 52.0263 54.5544 51.4233V46.2684C54.5544 45.6654 55.0396 45.1803 55.6425 45.1803H60.7929C61.3959 45.1803 61.881 45.6654 61.881 46.2684V51.4233C61.881 52.0218 61.3914 52.5114 60.7929 52.5114ZM56.7261 50.3352H59.7003V47.3565H56.7261V50.3352Z" fill="#0A1F69"/>
<path d="M18.3615 56.873H4.48361C3.88062 56.873 3.39551 56.3879 3.39551 55.7849V21.5141C3.39551 21.1287 3.59953 20.7706 3.93049 20.5756L17.8084 12.4194C18.1439 12.2199 18.561 12.2199 18.901 12.4148C19.2411 12.6098 19.4496 12.9679 19.4496 13.3578V55.7849C19.4496 56.3879 18.9645 56.873 18.3615 56.873ZM5.57172 54.6968H17.2734V15.2575L5.57172 22.1352V54.6968Z" fill="#0A1F69"/>
<path d="M13.9998 52.5115H8.84494C8.24195 52.5115 7.75684 52.0264 7.75684 51.4234V46.273C7.75684 45.6701 8.24195 45.1849 8.84494 45.1849H13.9953C14.5983 45.1849 15.0834 45.6701 15.0834 46.273V51.4234C15.088 52.0219 14.5983 52.5115 13.9998 52.5115ZM9.93305 50.3353H12.9117V47.3611H9.93758L9.93305 50.3353Z" fill="#0A1F69"/>
<path d="M13.9998 33.4787H8.84494C8.24195 33.4787 7.75684 32.9936 7.75684 32.3906V27.2402C7.75684 26.6372 8.24195 26.1521 8.84494 26.1521H13.9953C14.5983 26.1521 15.0834 26.6372 15.0834 27.2402V32.3951C15.088 32.9936 14.5983 33.4787 13.9998 33.4787ZM9.93305 31.3025H12.9072V28.3238H9.93305V31.3025Z" fill="#0A1F69"/>
<path d="M13.9998 42.9951H8.84494C8.24195 42.9951 7.75684 42.5099 7.75684 41.9069V36.752C7.75684 36.1491 8.24195 35.6639 8.84494 35.6639H13.9953C14.5983 35.6639 15.0834 36.1491 15.0834 36.752V41.9069C15.088 42.5054 14.5983 42.9951 13.9998 42.9951ZM9.93305 40.8188H12.9072V37.8402H9.93305V40.8188Z" fill="#0A1F69"/>
<path d="M27.8779 40.7418H22.7275C22.1245 40.7418 21.6394 40.2566 21.6394 39.6537V34.4988C21.6394 33.8958 22.1245 33.4106 22.7275 33.4106H27.8824C28.4854 33.4106 28.9705 33.8958 28.9705 34.4988V39.6537C28.966 40.2521 28.4809 40.7418 27.8779 40.7418ZM23.8156 38.5655H26.7943V35.5869H23.8156V38.5655Z" fill="#0A1F69"/>
<path d="M37.3942 40.7418H32.2439C31.6409 40.7418 31.1558 40.2566 31.1558 39.6537V34.4988C31.1558 33.8958 31.6409 33.4106 32.2439 33.4106H37.3988C38.0018 33.4106 38.4869 33.8958 38.4869 34.4988V39.6491C38.4823 40.2521 37.9972 40.7418 37.3942 40.7418ZM33.332 38.5655H36.3061V35.5914H33.3274L33.332 38.5655Z" fill="#0A1F69"/>
<path d="M37.3942 40.7418H32.2439C31.6409 40.7418 31.1558 40.2566 31.1558 39.6537V34.4988C31.1558 33.8958 31.6409 33.4106 32.2439 33.4106H37.3988C38.0018 33.4106 38.4869 33.8958 38.4869 34.4988V39.6491C38.4823 40.2521 37.9972 40.7418 37.3942 40.7418ZM33.332 38.5655H36.3061V35.5914H33.3274L33.332 38.5655Z" fill="#0A1F69"/>
<path d="M46.9108 40.7418H41.7605C41.1575 40.7418 40.6724 40.2566 40.6724 39.6537V34.4988C40.6724 33.8958 41.1575 33.4106 41.7605 33.4106H46.9108C47.5138 33.4106 47.9989 33.8958 47.9989 34.4988V39.6537C47.9989 40.2521 47.5138 40.7418 46.9108 40.7418ZM42.8486 38.5655H45.8227V35.5869H42.8486V38.5655Z" fill="#0A1F69"/>
<path d="M41.7603 56.8729H27.8779C27.2749 56.8729 26.7898 56.3878 26.7898 55.7848V44.201C26.7898 43.598 27.2749 43.1129 27.8779 43.1129H41.7558C42.3588 43.1129 42.8439 43.598 42.8439 44.201V55.7848C42.8484 56.3878 42.3588 56.8729 41.7603 56.8729ZM28.966 54.6967H40.6677V45.2891H28.966V54.6967Z" fill="#0A1F69"/>
<path d="M34.8191 56.8729C34.2161 56.8729 33.731 56.3878 33.731 55.7848V44.201C33.731 43.598 34.2161 43.1129 34.8191 43.1129C35.4221 43.1129 35.9072 43.598 35.9072 44.201V55.7848C35.9072 56.3878 35.4221 56.8729 34.8191 56.8729Z" fill="#0A1F69"/>
<path d="M68.5507 60.5H1.08811C0.485114 60.5 0 60.0149 0 59.4119V55.7849C0 55.1819 0.485114 54.6968 1.08811 54.6968H68.5507C69.1537 54.6968 69.6388 55.1819 69.6388 55.7849V59.4119C69.6388 60.0149 69.1537 60.5 68.5507 60.5ZM2.17621 58.3238H67.4626V56.873H2.17621V58.3238Z" fill="#0A1F69"/>
</svg>
