<svg width="19" height="20" viewBox="0 0 19 20" fill="none" xmlns="http://www.w3.org/2000/svg">
<path d="M8.64616 0.247477L7.13749 2.38744C6.86416 2.77517 7.14249 3.31107 7.61639 3.31107H8.53913V13.5861C8.53913 13.9097 8.80147 14.1721 9.1251 14.1721C9.44874 14.1721 9.71104 13.9097 9.71104 13.5861V3.31115H10.6337C11.1108 3.31115 11.3839 2.7724 11.1126 2.38756L9.60397 0.247594C9.37374 -0.0792028 8.88163 -0.085804 8.64616 0.247477Z" fill="#0A1F69"/>
<path d="M12.8875 3.18472C12.7256 3.46476 12.8212 3.82327 13.1013 3.98534C15.4809 5.36175 17.0783 7.93468 17.0783 10.8749C17.0783 15.2603 13.5105 18.8281 9.12512 18.8281C4.73973 18.8281 1.17191 15.2603 1.17191 10.8749C1.17191 7.93273 2.77086 5.36097 5.14883 3.98538C5.42899 3.82335 5.52457 3.46476 5.36266 3.18476C5.20063 2.90464 4.84215 2.80894 4.56203 2.97093C1.82539 4.55398 -1.47058e-07 7.51058 0 10.8749C2.20457e-07 15.9184 4.08121 20 9.12512 20C14.1686 20 18.2502 15.9188 18.2502 10.8749C18.2502 7.50913 16.4236 4.55327 13.6881 2.97089C13.408 2.8089 13.0496 2.9046 12.8875 3.18472Z" fill="#0A1F69"/>
</svg>
